{
	"database" : {
		"username": "hapi_boilerplate_test",
		"password": "hapi_boilerplate_test",
		"database": "hapi_boilerplate_test",
		"dialect": "sqlite",
		"uri": "sqlite://hapi_boilerplate_test.sqlite",
		"options": {
			"logging": true
		}
	},
	"database2" : {
		"username": "root",
		"password": "",
		"database": "hapi_boilerplate_development",
		"host": "127.0.0.1",
		"dialect": "mysql",
		"uri": "mysql://root:@127.0.0.1/hapi_boilerplate_development"
	},
	"hapi": {
		"server": {
			
		},
		"connections": [{
			"port": 8080,
			"host": "127.0.0.1",
			"router": {
		        "isCaseSensitive": true,
		        "stripTrailingSlash": true
		    }
		}],
		"plugins": {
			"blipp": {
				
			},
			"good": {
				"reporters": [
					{
						"reporter": "good-console",
						"events": {
							"request": "*",
							"request-internal": "received",
							"log": "*",
							"response": "*",
							"error": "*"
						}
						
					}
				],
				"extensions" : ["request-internal"],
				"requestHeaders" : false,
				"requestPayload" : true,
				"responsePayload" : true,
				"httpAgents" : false,
				"httpsAgents" : false,
				"requestHeaders" : false
			},
			"inert" :{
				
			},
			"vision" :{
				
			},
			"hapi-swagger" :{
				"apiVersion": "1.0.0",
				"documentationPath": "/explorer"
			}
		}
	}
}
